Homework 8
…
best_fit <- data_workflow3 |>
  last_fit(data_split)
best_fit |> collect_metrics()

# A tibble: 2 × 4
  .metric .estimator .estimate .config             
  <chr>   <chr>          <dbl> <chr>               
1 rmse    standard    2964.    Preprocessor1_Model1
2 rsq     standard       0.910 Preprocessor1_Model1

Here is the coefficient table for our model, arranged by p-values to highlight the most predictive parameters.

extract_fit_parsnip(best_fit) |> tidy() |> arrange(p.value)

# A tibble: 30 × 5
   term                            estimate std.error statistic  p.value
   <chr>                              <dbl>     <dbl>     <dbl>    <dbl>
 1 isSummerSeason                    24955.     2078.     12.0  3.53e-26
 2 SolarRadiationAvg_poly_1          54739.     5764.      9.50 2.74e-18
 3 isWeekend                         -2458.      411.     -5.98 8.21e- 9
 4 isAutumnSeason                    11823.     2268.      5.21 4.09e- 7
 5 isSpringSeason_x_TemperatureAvg   10048.     2464.      4.08 6.23e- 5
 6 RainfallSum_poly_1               -34844.     8953.     -3.89 1.30e- 4
 7 (Intercept)                        9828.     2675.      3.67 2.97e- 4
 8 isSpringSeason                     6669.     2170.      3.07 2.36e- 3
 9 HumidityAvg_poly_1               -56014.    24608.     -2.28 2.37e- 2
10 DewPointAvg_poly_1               173117.    82435.      2.10 3.68e- 2
# ℹ 20 more rows
…
